[gd_scene load_steps=4 format=2]

[ext_resource path="res://src/GUI/InventorySlot.gd" type="Script" id=1]
[ext_resource path="res://graphics/inv_slot.png" type="Texture" id=3]
[ext_resource path="res://graphics/inv_slot_highlight.png" type="Texture" id=4]

[node name="InventorySlot" type="Control"]
anchor_right = 1.0
anchor_bottom = 1.0
margin_right = -1920.0
margin_bottom = -1080.0
mouse_filter = 2
mouse_default_cursor_shape = 8
script = ExtResource( 1 )
__meta__ = {
"_edit_use_anchors_": false
}

[node name="Body" type="Sprite" parent="."]
texture = ExtResource( 3 )

[node name="HLBody" type="Sprite" parent="."]
visible = false
texture = ExtResource( 4 )
