[gd_resource type="TileSet" load_steps=5 format=2]

[ext_resource path="res://graphics/backgroundTiles/Base.png" type="Texture" id=1]
[ext_resource path="res://graphics/backgroundTiles/Scrap.png" type="Texture" id=2]
[ext_resource path="res://graphics/backgroundTiles/Fabric.png" type="Texture" id=3]
[ext_resource path="res://graphics/backgroundTiles/Rocks.png" type="Texture" id=4]

[resource]

0/name = "1"
0/texture = ExtResource( 1 )
0/tex_offset = Vector2( 0, 0 )
0/modulate = Color( 1, 1, 1, 1 )
0/region = Rect2( 0, 0, 200, 200 )
0/tile_mode = 0
0/occluder_offset = Vector2( 100, 100 )
0/navigation_offset = Vector2( 100, 100 )
0/shapes = [  ]
0/z_index = 0
1/name = "2"
1/texture = ExtResource( 2 )
1/tex_offset = Vector2( 0, 0 )
1/modulate = Color( 1, 1, 1, 1 )
1/region = Rect2( 0, 0, 200, 200 )
1/tile_mode = 0
1/occluder_offset = Vector2( 100, 100 )
1/navigation_offset = Vector2( 100, 100 )
1/shapes = [  ]
1/z_index = 0
2/name = "3"
2/texture = ExtResource( 3 )
2/tex_offset = Vector2( 0, 0 )
2/modulate = Color( 1, 1, 1, 1 )
2/region = Rect2( 0, 0, 200, 200 )
2/tile_mode = 0
2/occluder_offset = Vector2( 100, 100 )
2/navigation_offset = Vector2( 100, 100 )
2/shapes = [  ]
2/z_index = 0
3/name = "4"
3/texture = ExtResource( 4 )
3/tex_offset = Vector2( 0, 0 )
3/modulate = Color( 1, 1, 1, 1 )
3/region = Rect2( 0, 0, 200, 200 )
3/tile_mode = 0
3/occluder_offset = Vector2( 100, 100 )
3/navigation_offset = Vector2( 100, 100 )
3/shapes = [  ]
3/z_index = 0

